#
## Alias OBJ Material File
# Exported from SketchUp, (c) 2000-2012 Trimble Navigation Limited

newmtl D21C421_c
Ka 0.000000 0.000000 0.000000
Kd 0.180392 0.196078 0.270588
Ks 0.330000 0.330000 0.330000
map_Kd PawnB/D21C421_c.png

newmtl M_54CE5DCA_c
Ka 0.000000 0.000000 0.000000
Kd 0.203922 0.250980 0.360784
Ks 0.330000 0.330000 0.330000
map_Kd PawnB/M_54CE5DCA_c.png

newmtl M_304A48BD_c
Ka 0.000000 0.000000 0.000000
Kd 0.137255 0.082353 0.035294
Ks 0.330000 0.330000 0.330000
map_Kd PawnB/M_304A48BD_c.png

newmtl M_5D61A6B3_c
Ka 0.000000 0.000000 0.000000
Kd 0.156863 0.105882 0.050980
Ks 0.330000 0.330000 0.330000
map_Kd PawnB/M_5D61A6B3_c.png

newmtl M_7AD72BD7_c
Ka 0.000000 0.000000 0.000000
Kd 0.000000 0.000000 0.000000
Ks 0.330000 0.330000 0.330000
map_Kd PawnB/M_7AD72BD7_c.png

newmtl M_27626C73_c
Ka 0.000000 0.000000 0.000000
Kd 0.180392 0.164706 0.207843
Ks 0.330000 0.330000 0.330000
map_Kd PawnB/M_27626C73_c.png

newmtl M_693554D2_c
Ka 0.000000 0.000000 0.000000
Kd 0.184314 0.117647 0.054902
Ks 0.330000 0.330000 0.330000
map_Kd PawnB/M_693554D2_c.png

newmtl Material3
Ka 0.000000 0.000000 0.000000
Kd 0.000000 0.164706 0.000000
Ks 0.330000 0.330000 0.330000
map_Kd PawnB/Material3.png

newmtl M_38EB2DAD_c
Ka 0.000000 0.000000 0.000000
Kd 0.074510 0.039216 0.007843
Ks 0.330000 0.330000 0.330000
map_Kd PawnB/M_38EB2DAD_c.png

