# Alias OBJ Model File
# Exported from SketchUp, (c) 2000-2012 Trimble Navigation Limited
# File units = inches

mtllib KnightW.mtl

g Mesh1 Group2 Group1 Model

usemtl M_5EE0F6C7_c
v -0.519685 1.37023 0.330605
vt 1 1
vn -0.780319 -0.422114 0.461435
v -0.519493 1.37002 -0.330904
vt 0.5 1
vn -0.780183 -0.422022 -0.461749
v 0.000331166 0.0472545 -0.000253167
vt 0.75 -1.63231e-013
vn -7.68857e-005 -1 -7.58368e-005
f 1/1/1 2/2/2 3/3/3

v 0.000130834 1.37006 -0.614234
vt 2.99877 1.00008
vn -1.46643e-005 -0.421011 -0.907056
vt 3.24881 8.89293e-005
vn -7.68857e-005 -1 -7.58368e-005
vt 3.49877 1.0001
f 4/4/4 3/5/5 2/6/2

v 0.519985 1.37018 -0.33089
vt 2.49903 1.00008
vn 0.780351 -0.421891 -0.461585
vt 2.74907 8.18994e-005
vn -7.68857e-005 -1 -7.58368e-005
vt 2.99903 1.00009
f 5/7/6 3/8/7 4/9/4

v 0.519703 1.37006 0.33082
vt 2 1
vn 0.780214 -0.421912 0.461797
vt 2.25 1.92429e-013
vn -7.68857e-005 -1 -7.58368e-005
vt 2.5 1
f 6/10/8 3/11/9 5/12/6

vt 2.00012 1
v 7.97614e-005 1.37002 0.614149
vt 1.50012 1
vn -0.000135552 -0.421259 0.906941
vt 1.75012 4.9422e-007
f 6/13/8 7/14/10 3/15/5

vt 1.00012 1
vt 1.25012 2.18091e-006
vn -7.68857e-005 -1 -7.58368e-005
vt 1.50012 1
f 1/16/1 3/17/11 7/18/10

g Mesh2 Group3 Group1 Model

usemtl DD4B6F7_c
v -0.944691 0.283694 0.56679
vt 0.79736 2.04281e-014
vn -0.706474 0.356968 0.611121
v -0.377698 1.03946 0.236223
vt 0.79883 1
vn -0.712949 0.650049 0.262946
v -0.944931 0.283653 -0.567053
vt 0.46387 3.26406e-014
vn -0.885498 0.353636 -0.301387
f 8/19/12 9/20/13 10/21/14

vt 0.79883 1
vt 0.79736 7.23865e-014
v 0.000128795 1.03943 0.425251
vt 1.1294 1
vn -0.148981 0.658962 0.737274
f 9/22/13 8/23/12 11/24/15

vt 1.1294 0.999979
vn -0.148981 0.658962 0.737274
vt 0.797358 -2.08186e-005
vn -0.706474 0.356968 0.611121
v 0.000124168 0.283483 1.13366
vt 1.13037 -2.08718e-005
vn 0.0835283 0.445615 0.89132
f 11/25/16 8/26/17 12/27/18

usemtl M_3B81B743_c
vt 0.847312 1.00837
vn -0.706474 0.356968 0.611121
v 1.50131e-005 0.000125078 1.13386
vt 1.18032 0.00812917
vn -0.000169969 -0.503439 0.864031
vt 1.18031 1.00735
vn 0.0835283 0.445615 0.89132
f 8/28/19 13/29/20 12/30/21

vt 0.847312 1.00837
v -0.944667 0.00011537 0.566697
vt 0.847307 0.00837423
vn -0.756136 -0.601438 0.257935
vt 1.18032 0.00812982
vn -0.000169969 -0.503439 0.864031
f 8/31/12 14/32/22 13/33/23

vt 0.847169 1.00004
vn -0.706474 0.356968 0.611121
vt 0.51367 1.00004
vn -0.885498 0.353636 -0.301387
vt 0.847169 4.20693e-005
vn -0.756136 -0.601438 0.257935
f 8/34/24 10/35/25 14/36/26

vt 0.847169 4.20693e-005
vt 0.51367 1.00004
v -0.944906 7.5896e-005 -0.567148
vt 0.513669 4.37876e-005
vn -0.714834 -0.352162 -0.604147
f 14/37/22 10/38/25 15/39/27

vt 0.513669 0.999949
v 4.87956e-006 0.283406 -1.13387
vt 0.180179 0.999956
vn -0.060545 0.323906 -0.94415
vt 0.513669 -4.53591e-005
f 10/40/25 16/41/28 15/42/27

usemtl DD4B6F7_c
v -0.377638 1.03941 -0.23625
vt 0.46582 1
vn -0.559333 0.66636 -0.493063
vt 0.13037 2.03115e-013
vn -0.060545 0.323906 -0.94415
vt 0.46387 2.20143e-013
f 17/43/29 16/44/30 10/45/25

v 0.000409618 1.03959 -0.425198
vt 0.132573 0.999293
vn 0.149215 0.658877 -0.737303
vt 0.131626 -0.000719274
vt 0.467039 0.99931
f 18/46/31 16/47/28 17/48/29

vt 0.131326 0.999806
v 0.94482 0.283195 -0.567
vt -0.202664 -0.000193404
vn 0.729055 0.429518 -0.53291
vt 0.130346 -0.000194014
vn -0.060545 0.323906 -0.94415
f 18/49/31 19/50/32 16/51/33

vt 0.13135 1
vn 0.149215 0.658877 -0.737303
v 0.378237 1.03956 -0.236171
vt -0.2041 1
vn 0.713349 0.649572 -0.263037
vt -0.20264 -4.32987e-015
vn 0.729055 0.429518 -0.53291
f 18/52/34 20/53/35 19/54/36

v 0.945059 0.283234 0.566844
vt -0.53613 4.2133e-014
vn 0.859176 0.307821 0.408733
vt -0.20264 3.86358e-014
vt -0.2041 1
f 21/55/37 19/56/32 20/57/35

usemtl M_3B81B743_c
vt -0.486277 1.00423
vn 0.859176 0.307821 0.408733
v 0.944801 0.000163455 -0.566997
vt -0.152773 0.00444853
vn 0.836343 -0.276108 -0.473597
vt -0.152836 1.0033
vn 0.729055 0.429518 -0.53291
f 21/58/38 22/59/39 19/60/40

v 0.944951 -0.00012499 0.567049
vt -0.486273 0.00423253
vn 0.571321 -0.754344 0.323354
vt -0.152773 0.00444858
vn 0.836343 -0.276108 -0.473597
vt -0.486277 1.00423
f 23/61/41 22/62/42 21/63/38

usemtl Material3
v 2.87386e-005 -0.000172745 -1.13396
vt 1.00168 -0.499356
vn 4.09657e-005 -0.919069 -0.394097
vt 0.00203504 0.000952308
vt 0.0016081 1.00156
f 24/64/43 22/65/42 23/66/41

usemtl M_3B81B743_c
vt 0.180106 1.00399
vn -0.060545 0.323906 -0.94415
vt -0.152902 0.00391407
vt 0.180108 0.00399352
vn 4.09657e-005 -0.919069 -0.394097
f 16/67/44 22/68/39 24/69/45

vt 0.180106 1.00399
vn -0.060545 0.323906 -0.94415
vt -0.1529 1.00199
vt -0.152902 0.003914
f 16/70/46 19/71/36 22/72/39

vt 0.180179 0.999956
vt 0.180179 -4.39334e-005
vt 0.513669 -4.53591e-005
vn -0.714834 -0.352162 -0.604147
f 16/73/44 24/74/45 15/75/47

usemtl Material3
vt 2.00122 0.000708097
vt 1.00168 -0.499356
vn 4.09657e-005 -0.919069 -0.394097
vt 2.0007 1.00114
f 15/76/27 24/77/48 14/78/22

vt 2.0007 1.00114
vn -0.756136 -0.601438 0.257935
vt 1.00168 -0.499356
vn 4.09657e-005 -0.919069 -0.394097
vt 1.00116 1.50162
vn -0.000169969 -0.503439 0.864031
f 14/79/49 24/80/50 13/81/51

vt 1.00116 1.50162
vn -0.000169969 -0.503439 0.864031
vt 1.00168 -0.499356
vn 4.09657e-005 -0.919069 -0.394097
vt 0.00160797 1.00156
f 13/82/52 24/83/53 23/84/41

usemtl M_3B81B743_c
vt -0.48633 1.00002
vn 0.859176 0.307821 0.408733
vt -0.81982 2.24564e-005
vt -0.48633 2.1608e-005
vn 0.571321 -0.754344 0.323354
f 21/85/54 13/86/23 23/87/55

vt -0.81982 1.00002
vt -0.81982 2.24564e-005
vt -0.48633 1.00002
f 12/88/21 13/89/23 21/90/54

usemtl DD4B6F7_c
v 0.378308 1.03938 0.236006
vt 1.46143 1
vn 0.559718 0.66601 0.493098
vt 1.13037 3.56382e-014
vt 1.46387 5.35127e-014
f 25/91/56 12/92/21 21/93/54

vt 1.1293 1.00006
vt 1.13027 5.44797e-005
vn 0.0835283 0.445615 0.89132
vt 1.46133 1.00006
f 11/94/16 12/95/57 25/96/56

vt -0.53613 -3.19911e-013
vt -0.2041 1
vt -0.53857 1
f 21/97/37 20/98/35 25/99/56

vt 0.79883 1
vt 0.46582 1
vn -0.559333 0.66636 -0.493063
vt 0.46387 4.31544e-013
f 9/100/13 17/101/58 10/102/25

g Mesh3 Group4 Group1 Model

usemtl DBD580A_c
v 0.000455101 3.25988 -0.992177
vt 0.49902 0.55957
vn -0.0167613 0.0264966 -0.999508
v 0.000321254 2.03137 -0.519714
vt 0.5 0.20215
vn -0.0113855 0.065947 -0.997758
v -0.330343 3.21272 -0.897737
vt 0.75977 0.55029
vn -0.649579 0.0311691 -0.759655
f 26/103/59 27/104/60 28/105/61

vt 0.49902 0.55957
v 0.37815 3.21253 -0.897715
vt 0.23828 0.55029
vn 0.632361 0.0321803 -0.774005
vt 0.5 0.20215
vn -0.0113855 0.065947 -0.997758
f 26/106/59 29/107/62 27/108/63

v 0.000554683 4.39359 -0.472477
vt 0.49805 0.88818
vn -0.0204737 0.721497 -0.692115
vt 0.23828 0.55029
vn 0.632361 0.0321803 -0.774005
vt 0.49902 0.55957
vn -0.0167613 0.0264966 -0.999508
f 30/109/64 29/110/65 26/111/66

v 0.472826 4.39367 -0.283591
vt 0.18066 0.88818
vn 0.873017 0.32554 -0.363133
vt 0.23828 0.55029
vt 0.49805 0.88818
vn -0.0204737 0.721497 -0.692115
f 31/112/67 29/113/62 30/114/68

usemtl M_4D431BB_c
v 0.472746 3.40139 -0.0473832
vt 0.47852 0.59766
vn 0.984826 -0.142704 -0.0987543
vt 0.03809 0.54785
vt 0.36133 0.88281
vn 0.873017 0.32554 -0.363133
f 32/115/69 29/116/62 31/117/70

vt 0.47852 0.59766
vn 0.984826 -0.142704 -0.0987543
v 0.567307 2.03124 -0.33061
vt 0.34277 0.20264
vn 0.912694 0.141697 -0.383291
vt 0.03809 0.54785
f 32/118/71 33/119/72 29/120/62

v 0.661634 1.60614 0.661552
vt 0.8418 0.0864299
vn 0.696439 0.124067 0.70681
vt 0.34277 0.20264
vn 0.912694 0.141697 -0.383291
vt 0.47852 0.59766
f 34/121/73 33/122/74 32/123/71

vt 0.8418 0.0864299
vn 0.696439 0.124067 0.70681
v 0.708959 1.32277 0.614267
vt 0.80469 0.00243998
vn 0.887719 -0.288391 0.358867
vt 0.34277 0.20264
vn 0.912694 0.141697 -0.383291
f 34/124/75 35/125/76 33/126/77

usemtl E88F28E_c
vt 0.96973 0.08496
v 9.78048e-005 1.32271 0.85027
vt 0.5 -1.09968e-013
vn -0.00768504 -0.796953 0.603993
vt 1 -1.07123e-013
f 34/127/75 36/128/78 35/129/76

v 0.000232162 1.60653 0.944863
vt 0.5 0.08496
vn -0.0143406 0.0494858 0.998672
vt 0.5 -3.0953e-013
vt 0.96973 0.08496
f 37/130/79 36/131/78 34/132/75

vt 0.5 0.08496
v -0.613844 1.60641 0.661163
vt 0.03027 0.08496
vn -0.710237 0.123403 0.693062
vt 0.5 -1.32699e-013
vn -0.00768504 -0.796953 0.603993
f 37/133/79 38/134/80 36/135/81

v 0.000197395 2.45671 0.566611
vt 0.5 0.33203
vn -0.0110155 0.435666 0.900041
vt 0.03027 0.08496
vn -0.710237 0.123403 0.693062
vt 0.5 0.08496
f 39/136/82 38/137/83 37/138/79

v -0.424907 3.40168 -0.0474814
vt 0.16699 0.60254
vn -0.991116 0.0331263 0.128813
vt 0.03027 0.08496
vt 0.5 0.33203
vn -0.0110155 0.435666 0.900041
f 40/139/84 38/140/83 39/141/85

usemtl M_4D431BB_c
vt 0.84277 0.0864299
vt 0.47852 0.59815
v -0.519505 2.03163 -0.330782
vt 0.34375 0.20264
vn -0.914954 0.14173 -0.377852
f 38/142/80 40/143/84 41/144/86

vt 0.47852 0.59815
vt 0.03809 0.54785
vn -0.649579 0.0311691 -0.759655
vt 0.34375 0.20264
vn -0.914954 0.14173 -0.377852
f 40/145/84 28/146/87 41/147/88

vt 0.47852 0.59815
v -0.424916 4.39364 -0.28349
vt 0.3623 0.88281
vn -0.878049 0.31981 -0.356022
vt 0.03809 0.54785
f 40/148/84 42/149/89 28/150/61

v -0.424748 4.34632 0.283317
vt 0.63867 0.87109
vn -0.794396 0.234493 0.56031
vt 0.3623 0.88281
vn -0.878049 0.31981 -0.356022
vt 0.47852 0.59815
f 43/151/90 42/152/91 40/153/84

v -0.377381 4.77174 0.283466
vt 0.65332 0.99853
vn -0.354682 0.917258 0.181212
vt 0.3623 0.88281
vt 0.63867 0.87109
f 44/154/92 42/155/91 43/156/90

usemtl DBD580A_c
vt 0.84766 0.9082
vt 1 0.66943
vn -0.354682 0.917258 0.181212
vt 0.46777 0.91504
vn -0.0204737 0.721497 -0.692115
f 42/157/89 44/158/93 30/159/94

vt 1 0.66943
vn -0.354682 0.917258 0.181212
v 0.0476222 4.48829 0.283261
vt 0.63965 0.68994
vn -0.00826556 0.669071 0.743152
vt 0.46777 0.91504
f 44/160/95 45/161/96 30/162/68

usemtl C228001_c
vt 0.19727 1.00781
vt 0.18066 0.87891
vn -0.794396 0.234493 0.56031
vt 0.50293 0.92139
vn -0.00826556 0.669071 0.743152
f 44/163/95 43/164/97 45/165/98

vt 0.50293 0.92139
vn -0.00826556 0.669071 0.743152
vt 0.18066 0.87891
vn -0.794396 0.234493 0.56031
v 0.000501548 4.01573 0.70843
vt 0.5 0.77832
vn -0.0116734 0.470641 0.882248
f 45/166/99 43/167/100 46/168/101

vt 0.18066 0.87891
v -0.330375 3.21285 0.850367
vt 0.25391 0.55176
vn -0.747279 -0.0662467 0.6612
vt 0.5 0.77832
f 43/169/90 47/170/102 46/171/101

usemtl M_4D431BB_c
vt 0.94336 0.54785
vt 0.63867 0.87109
vt 0.47852 0.59815
f 47/172/102 43/173/90 40/174/84

vt 0.94336 0.54785
vn -0.747279 -0.0662467 0.6612
vt 0.47852 0.59815
v -0.283071 2.74027 0.566932
vt 0.7793 0.41748
vn -0.562491 -0.819593 -0.108955
f 47/175/103 40/176/84 48/177/104

usemtl E88F28E_c
vt 0.16699 0.60254
vt 0.83887 0.60254
vn 0.984826 -0.142704 -0.0987543
vt 0.26465 0.41992
vn -0.562491 -0.819593 -0.108955
f 40/178/84 32/179/105 48/180/106

vt 0.16699 0.60254
vt 0.5 0.33203
vt 0.83887 0.60254
vn 0.984826 -0.142704 -0.0987543
f 40/181/84 39/182/82 32/183/107

vt 0.83887 0.60254
vn 0.984826 -0.142704 -0.0987543
vt 0.5 0.33203
vn -0.0110155 0.435666 0.900041
vt 0.96973 0.08496
vn 0.696439 0.124067 0.70681
f 32/184/108 39/185/109 34/186/110

vt 0.5 0.33203
vn -0.0110155 0.435666 0.900041
vt 0.5 0.08496
vn -0.0143406 0.0494858 0.998672
vt 0.96973 0.08496
vn 0.696439 0.124067 0.70681
f 39/187/111 37/188/112 34/189/113

vt 0.83887 0.60254
v 0.000390931 2.69277 0.519751
vt 0.5 0.39453
vn 0.0407596 -0.979417 -0.197691
vt 0.26465 0.41992
f 32/190/71 49/191/114 48/192/104

vt 0.5 0.39453
vt 0.83887 0.60254
v 0.378109 2.78715 0.566765
vt 0.75977 0.42334
vn 0.657944 -0.725832 0.200691
f 49/193/114 32/194/71 50/195/115

usemtl M_4D431BB_c
v 0.378119 3.21266 0.850389
vt 0.94238 0.54785
vn 0.722177 -0.0516959 0.689774
vt 0.77832 0.4209
vn 0.657944 -0.725832 0.200691
vt 0.47852 0.59766
vn 0.984826 -0.142704 -0.0987543
f 51/196/116 50/197/117 32/198/118

usemtl C228001_c
vt 0.74609 0.55176
vn 0.722177 -0.0516959 0.689774
v 0.000332997 2.8818 0.89739
vt 0.5 0.45508
vn -0.00225367 -0.649754 0.760141
vt 0.75977 0.42334
f 51/199/119 52/200/120 50/201/115

vt 0.74609 0.55176
vn 0.722177 -0.0516959 0.689774
v 0.000405134 3.11824 0.992116
vt 0.5 0.52051
vn -0.0232411 -0.0272194 0.999359
vt 0.5 0.45508
vn -0.00225367 -0.649754 0.760141
f 51/202/121 53/203/122 52/204/123

vt 0.5 0.77832
vn -0.0116734 0.470641 0.882248
vt 0.5 0.52051
vt 0.74609 0.55176
vn 0.722177 -0.0516959 0.689774
f 46/205/124 53/206/122 51/207/125

vt 0.5 0.77832
vn -0.0116734 0.470641 0.882248
vt 0.25391 0.55176
vt 0.5 0.52051
f 46/208/126 47/209/102 53/210/122

vt 0.25391 0.55176
vn -0.747279 -0.0662467 0.6612
vt 0.5 0.45508
vn -0.00225367 -0.649754 0.760141
vt 0.5 0.52051
vn -0.0232411 -0.0272194 0.999359
f 47/211/127 52/212/128 53/213/129

vt 0.25391 0.55176
vt 0.26465 0.41992
vt 0.5 0.45508
vn -0.00225367 -0.649754 0.760141
f 47/214/102 48/215/106 52/216/130

vt 0.26465 0.41992
vt 0.5 0.39453
vn 0.0407596 -0.979417 -0.197691
vt 0.5 0.45508
vn -0.00225367 -0.649754 0.760141
f 48/217/106 49/218/131 52/219/132

vt 0.5 0.45508
vn -0.00225367 -0.649754 0.760141
vt 0.5 0.39453
vt 0.75977 0.42334
f 52/220/133 49/221/131 50/222/115

v 0.472862 4.34658 0.283513
vt 0.81934 0.87891
vn 0.788808 0.232329 0.569038
vt 0.5 0.77832
vt 0.74609 0.55176
f 54/223/134 46/224/126 51/225/125

vt 0.50293 0.92139
vn -0.00826556 0.669071 0.743152
vt 0.5 0.77832
vn -0.0116734 0.470641 0.882248
vt 0.81934 0.87891
vn 0.788808 0.232329 0.569038
f 45/226/135 46/227/136 54/228/137

v 0.425557 4.77167 0.283346
vt 0.80273 1.00488
vn 0.322476 0.920304 0.22147
vt 0.50293 0.92139
vt 0.81934 0.87891
f 55/229/138 45/230/98 54/231/134

usemtl DBD580A_c
vt 0.46777 0.91504
vt 0.63965 0.68994
vn -0.00826556 0.669071 0.743152
vt 0.35156 0.58789
f 30/232/94 45/233/139 55/234/138

vt 0.46777 0.91504
vn -0.0204737 0.721497 -0.692115
vt 0.35156 0.58789
vn 0.322476 0.920304 0.22147
vt 0.16797 0.82324
f 30/235/140 55/236/141 31/237/70

usemtl M_4D431BB_c
vt 0.6377 0.87109
vt 0.36133 0.88281
vt 0.65625 0.99609
f 54/238/137 31/239/67 55/240/141

vt 0.6377 0.87109
vt 0.47852 0.59766
vn 0.984826 -0.142704 -0.0987543
vt 0.36133 0.88281
vn 0.873017 0.32554 -0.363133
f 54/241/137 32/242/142 31/243/143

vt 0.94238 0.54785
vn 0.722177 -0.0516959 0.689774
vt 0.47852 0.59766
vn 0.984826 -0.142704 -0.0987543
vt 0.6377 0.87109
f 51/244/144 32/245/145 54/246/137

usemtl DBD580A_c
vt 0.81641 0.88818
vt 0.49805 0.88818
vt 0.75977 0.55029
vn -0.649579 0.0311691 -0.759655
f 42/247/91 30/248/94 28/249/146

vt 0.49805 0.88818
vn -0.0204737 0.721497 -0.692115
vt 0.49902 0.55957
vt 0.75977 0.55029
vn -0.649579 0.0311691 -0.759655
f 30/250/147 26/251/59 28/252/148

vt 0.75977 0.55029
vt 0.5 0.20215
vn -0.0113855 0.065947 -0.997758
vt 0.90918 0.20215
f 28/253/148 27/254/149 41/255/86

vt 0.90918 0.20215
vt 0.5 0.20215
vn -0.0113855 0.065947 -0.997758
v -0.661284 1.32281 -0.75581
vt 1 -4.06064e-014
vn -0.593879 -0.361104 -0.718965
f 41/256/86 27/257/150 56/258/151

vt 0.5 0.20215
vn -0.0113855 0.065947 -0.997758
v 0.000208483 1.3227 -0.850584
vt 0.5 2.18419e-014
vn -0.00411351 -0.542251 -0.840207
vt 1 2.1187e-014
vn -0.593879 -0.361104 -0.718965
f 27/259/152 57/260/153 56/261/154

vt 0.5 0.20215
v 0.708862 1.32276 -0.756066
vt -1.47087e-013 7.54605e-015
vn 0.58408 -0.362551 -0.726228
vt 0.5 8.73607e-015
vn -0.00411351 -0.542251 -0.840207
f 27/262/152 58/263/155 57/264/156

vt 0.5 0.20215
vn -0.0113855 0.065947 -0.997758
vt 0.0908199 0.20215
vt -1.31395e-013 -3.15373e-015
f 27/265/157 33/266/74 58/267/155

vt 0.23828 0.55029
vt 0.0908199 0.20215
vt 0.5 0.20215
f 29/268/62 33/269/74 27/270/63

usemtl M_4D431BB_c
vt 0.80469 0.00243998
vn 0.887719 -0.288391 0.358867
vt 0.12793 0.00243998
vn 0.58408 -0.362551 -0.726228
vt 0.34277 0.20264
vn 0.912694 0.141697 -0.383291
f 35/271/158 58/272/159 33/273/160

usemtl M_3E46298F_c
vt 1.19727 0.51758
vn -0.00768504 -0.796953 0.603993
vt -1.55431e-014 -4.58116e-014
vt 1 -4.27142e-014
f 36/274/161 58/275/159 35/276/76

vt 1.19727 0.51758
vn -0.00768504 -0.796953 0.603993
vt -0.08008 0.51563
vn -0.00411351 -0.542251 -0.840207
vt -2.99412e-009 5.7338e-009
f 36/277/162 57/278/163 58/279/159

vt -0.00194998 1.03125
vt -0.08008 0.51563
vt 1.19727 0.51758
f 56/280/151 57/281/153 36/282/78

vt -0.00194997 1.03125
vt 1.19727 0.51758
vn -0.00768504 -0.796953 0.603993
v -0.660963 1.32293 0.614019
vt 0.99805 1.0332
vn -0.890654 -0.285084 0.354206
f 56/283/151 36/284/164 59/285/165

usemtl E88F28E_c
vt 0.03027 0.08496
vn -0.710237 0.123403 0.693062
vt 1.37113e-013 5.67046e-014
vn -0.890654 -0.285084 0.354206
vt 0.5 5.45744e-014
vn -0.00768504 -0.796953 0.603993
f 38/286/166 59/287/167 36/288/168

usemtl M_4D431BB_c
vt 0.84277 0.08643
vt 0.34375 0.20264
vt 0.80566 0.00292999
f 38/289/166 41/290/86 59/291/165

vt 0.80566 0.00292999
vt 0.34375 0.20264
vt 0.12891 0.00292999
vn -0.593879 -0.361104 -0.718965
f 59/292/165 41/293/86 56/294/169

